<svg xmlns="http://www.w3.org/2000/svg" xmlns:xlink="http://www.w3.org/1999/xlink" width="51.629" height="51.617" viewBox="0 0 51.629 51.617">
  <defs>
    <linearGradient id="linear-gradient" x1="0.5" x2="0.5" y2="1" gradientUnits="objectBoundingBox">
      <stop offset="0" stop-color="#c822d3"/>
      <stop offset="1" stop-color="#ff0f0f"/>
    </linearGradient>
  </defs>
  <path id="instagram" d="M25.745,44.4A13.234,13.234,0,1,0,38.979,57.634,13.213,13.213,0,0,0,25.745,44.4Zm0,21.838a8.6,8.6,0,1,1,8.6-8.6,8.619,8.619,0,0,1-8.6,8.6ZM42.607,43.858a3.087,3.087,0,1,1-3.087-3.087A3.08,3.08,0,0,1,42.607,43.858Zm8.765,3.133c-.2-4.135-1.14-7.8-4.169-10.815s-6.68-3.962-10.815-4.169c-4.262-.242-17.035-.242-21.3,0-4.123.2-7.786,1.14-10.815,4.158S.314,42.845.106,46.98c-.242,4.262-.242,17.035,0,21.3.2,4.135,1.14,7.8,4.169,10.815s6.68,3.962,10.815,4.169c4.262.242,17.035.242,21.3,0,4.135-.2,7.8-1.14,10.815-4.169s3.962-6.68,4.169-10.815C51.614,64.014,51.614,51.253,51.372,46.991ZM45.867,72.849a8.711,8.711,0,0,1-4.907,4.907c-3.4,1.348-11.46,1.037-15.215,1.037s-11.829.3-15.215-1.037a8.711,8.711,0,0,1-4.907-4.907c-1.348-3.4-1.037-11.46-1.037-15.215S4.287,45.8,5.623,42.419a8.711,8.711,0,0,1,4.907-4.907c3.4-1.348,11.46-1.037,15.215-1.037s11.829-.3,15.215,1.037a8.711,8.711,0,0,1,4.907,4.907c1.348,3.4,1.037,11.46,1.037,15.215S47.214,69.462,45.867,72.849Z" transform="translate(0.075 -31.825)" fill="url(#linear-gradient)"/>
</svg>
