<svg xmlns="http://www.w3.org/2000/svg" width="622.378" height="405.859" viewBox="0 0 622.378 405.859">
  <g id="treebirds" transform="translate(-1416 -6966.158)">
    <g id="tree" transform="translate(1845.996 7115.507)" fill="#242424">
      <path d="M 120.2308120727539 255.5103149414063 L 72.15541839599609 255.5103149414063 C 69.70691680908203 255.5103149414063 67.47621154785156 254.2661743164063 66.18827819824219 252.1822509765625 C 64.90821075439453 250.111083984375 64.78660583496094 247.5775604248047 65.86013031005859 245.3958282470703 L 81.00897979736328 221.1897125244141 L 81.16131591796875 220.9463500976563 L 81.16131591796875 220.6592102050781 L 81.16131591796875 208.4098815917969 L 81.16131591796875 207.4098815917969 L 80.16131591796875 207.4098815917969 L 11.59524822235107 207.4098815917969 C 7.466681957244873 207.4098815917969 3.690848588943481 205.0310211181641 1.975815176963806 201.3494415283203 C 0.2412152290344238 197.6200408935547 0.8643152117729187 193.378173828125 3.602248668670654 190.2797546386719 L 43.62694931030273 144.9444427490234 L 45.09414672851563 143.2826080322266 L 42.87731552124023 143.2826080322266 L 27.5318489074707 143.2826080322266 C 23.40491485595703 143.2826080322266 19.76231575012207 140.9970092773438 18.02551460266113 137.3177795410156 C 16.29688262939453 133.6461486816406 16.86891555786133 129.4437408447266 19.5187816619873 126.3514175415039 L 58.6655158996582 80.80718231201172 L 60.0853157043457 79.15534973144531 L 57.90715026855469 79.15534973144531 L 43.43341445922852 79.15534973144531 C 39.26671600341797 79.15534973144531 35.52304840087891 76.71607971191406 33.89598083496094 72.94101715087891 C 32.29191589355469 69.22554779052734 33.0513801574707 64.91458129882813 35.83054733276367 61.95774841308594 L 91.08061218261719 3.100480794906616 C 92.33541870117188 1.760514140129089 94.19924926757813 0.9925141334533691 96.19501495361328 0.9925141334533691 C 98.19044494628906 0.9925141334533691 100.0526809692383 1.760280728340149 101.3042144775391 3.099014043807983 L 156.5502166748047 61.95724868774414 C 159.3329772949219 64.91791534423828 160.0925750732422 69.228515625 158.4859161376953 72.93951416015625 C 156.8581848144531 76.71607971191406 153.1165161132813 79.15534973144531 148.9528503417969 79.15534973144531 L 134.4791107177734 79.15534973144531 L 132.3008117675781 79.15534973144531 L 133.7207794189453 80.80721282958984 L 172.8634796142578 126.3425827026367 C 175.5217132568359 129.4385528564453 176.0956420898438 133.6420440673828 174.3609466552734 137.3123168945313 C 172.6245880126953 140.9952545166016 168.9820556640625 143.2826080322266 164.8544158935547 143.2826080322266 L 149.5089416503906 143.2826080322266 L 147.2921142578125 143.2826080322266 L 148.7593078613281 144.9444427490234 L 188.7837524414063 190.2794189453125 C 191.5219421386719 193.3781433105469 192.1450500488281 197.6200103759766 190.4101867675781 201.3499755859375 C 188.6954193115234 205.0310211181641 184.9195861816406 207.4098815917969 180.791015625 207.4098815917969 L 112.2249450683594 207.4098815917969 L 111.2249450683594 207.4098815917969 L 111.2249450683594 208.4098815917969 L 111.2249450683594 220.6592102050781 L 111.2249450683594 220.9463500976563 L 111.3772811889648 221.1897125244141 L 126.5261001586914 245.3958282470703 C 127.5996246337891 247.5775604248047 127.4780197143555 250.111083984375 126.1979522705078 252.1822509765625 C 124.9100189208984 254.2661743164063 122.679313659668 255.5103149414063 120.2308120727539 255.5103149414063 Z" stroke="none"/>
      <path d="M 120.2308120727539 254.5103149414063 C 122.3302154541016 254.5103149414063 124.2429122924805 253.4434814453125 125.3473129272461 251.6565093994141 C 126.4363403320313 249.8944091796875 126.5476226806641 247.7422027587891 125.6503219604492 245.8814544677734 L 110.5295791625977 221.72021484375 L 110.2249450683594 221.2334442138672 L 110.2249450683594 220.6592102050781 L 110.2249450683594 208.4098815917969 L 110.2249450683594 206.4098815917969 L 112.2249450683594 206.4098815917969 L 180.791015625 206.4098815917969 C 184.5324096679688 206.4098815917969 187.9524536132813 204.2577819824219 189.5034790039063 200.9282531738281 C 191.0680847167969 197.5643463134766 190.5052490234375 193.7378082275391 188.0340881347656 190.9412536621094 L 148.0096435546875 145.6062774658203 L 145.0753173828125 142.2826080322266 L 149.5089416503906 142.2826080322266 L 164.8544158935547 142.2826080322266 C 168.5909118652344 142.2826080322266 171.8868560791016 140.2150421142578 173.4568481445313 136.8849792480469 C 175.0205535888672 133.5765533447266 174.5023193359375 129.786376953125 172.1051483154297 126.9944458007813 L 132.9624481201172 81.45908355712891 L 130.1225128173828 78.15534973144531 L 134.4791107177734 78.15534973144531 L 148.9528503417969 78.15534973144531 C 152.7168121337891 78.15534973144531 156.0980529785156 75.9532470703125 157.5682220458984 72.54218292236328 C 159.0162506103516 69.19761657714844 158.3308410644531 65.31181335449219 155.8210754394531 62.64164733886719 L 100.5737457275391 3.781947374343872 C 99.51058197021484 2.644747495651245 97.91461181640625 1.992514133453369 96.19501495361328 1.992514133453369 C 94.47481536865234 1.992514133453369 92.87701416015625 2.645180702209473 91.80971527099609 3.784914016723633 L 36.5592155456543 62.64264678955078 C 34.05321502685547 65.30881500244141 33.36811447143555 69.19538116455078 34.81431579589844 72.54521179199219 C 36.28318023681641 75.9532470703125 39.6663818359375 78.15534973144531 43.43341445922852 78.15534973144531 L 57.90715026855469 78.15534973144531 L 62.26348114013672 78.15534973144531 L 59.42388153076172 81.45901489257813 L 20.27811431884766 127.0021133422852 C 17.88791465759277 129.7913818359375 17.37161445617676 133.5812530517578 18.92984771728516 136.8908843994141 C 20.49974822998047 140.2166137695313 23.79584884643555 142.2826080322266 27.5318489074707 142.2826080322266 L 42.87731552124023 142.2826080322266 L 47.31094741821289 142.2826080322266 L 44.37661361694336 145.6062774658203 L 4.351582050323486 190.9419097900391 C 1.880981922149658 193.7378082275391 1.318181872367859 197.5643768310547 2.882282018661499 200.9271850585938 C 4.433815002441406 204.2577819824219 7.853848457336426 206.4098815917969 11.59524822235107 206.4098815917969 L 80.16131591796875 206.4098815917969 L 82.16131591796875 206.4098815917969 L 82.16131591796875 208.4098815917969 L 82.16131591796875 220.6592102050781 L 82.16131591796875 221.2334442138672 L 81.85668182373047 221.72021484375 L 66.73590850830078 245.8814544677734 C 65.83860778808594 247.7422027587891 65.94989013671875 249.8944091796875 67.03891754150391 251.6565093994141 C 68.14331817626953 253.4434814453125 70.05601501464844 254.5103149414063 72.15541839599609 254.5103149414063 L 120.2308120727539 254.5103149414063 M 120.2308120727539 256.5103149414063 L 72.15541839599609 256.5103149414063 C 66.19858551025391 256.5103149414063 62.32088088989258 250.2379150390625 64.98618316650391 244.9073181152344 L 80.16131591796875 220.6592102050781 L 80.16131591796875 208.4098815917969 L 11.59524822235107 208.4098815917969 C 7.081282138824463 208.4098815917969 2.948081970214844 205.8047180175781 1.069348573684692 201.7717132568359 C -0.83445143699646 197.6785736083984 -0.1530847698450089 193.0193481445313 2.852881908416748 189.6175842285156 L 42.87731552124023 144.2826080322266 L 27.5318489074707 144.2826080322266 C 23.01288223266602 144.2826080322266 19.02498245239258 141.7776489257813 17.1212158203125 137.7446441650391 C 15.22241497039795 133.7116088867188 15.84868144989014 129.0974731445313 18.75944900512695 125.7007141113281 L 57.90715026855469 80.15534973144531 L 43.43341445922852 80.15534973144531 C 38.87434768676758 80.15534973144531 34.76121520996094 77.47501373291016 32.9776496887207 73.33681488037109 C 31.21918106079102 69.26371765136719 32.04581451416016 64.52431488037109 35.10188293457031 61.27288055419922 L 90.35151672363281 2.416080713272095 C 91.86453247070313 0.8003641366958618 94.03008270263672 -0.007494226098060608 96.19499969482422 -0.007494226098060608 C 98.35992431640625 -0.007494226098060608 100.5242156982422 0.8003641366958618 102.0347137451172 2.416080713272095 L 157.2793426513672 61.27288055419922 C 160.3354187011719 64.52431488037109 161.1670532226563 69.26371765136719 159.4035797119141 73.33681488037109 C 157.6200103759766 77.47501373291016 153.5118865966797 80.15534973144531 148.9528503417969 80.15534973144531 L 134.4791107177734 80.15534973144531 L 173.6218109130859 125.6907119750977 C 176.5425872802734 129.0924530029297 177.1688537597656 133.7116088867188 175.2650451660156 137.7396087646484 C 173.3612823486328 141.7776489257813 169.3683776855469 144.2826080322266 164.8544158935547 144.2826080322266 L 149.5089416503906 144.2826080322266 L 189.5333862304688 189.6175842285156 C 192.5393524169922 193.0193481445313 193.2206878662109 197.6785736083984 191.3169097900391 201.7717132568359 C 189.4381866455078 205.8047180175781 185.3049774169922 208.4098815917969 180.791015625 208.4098815917969 L 112.2249450683594 208.4098815917969 L 112.2249450683594 220.6592102050781 L 127.4000473022461 244.9073181152344 C 130.0653533935547 250.2379150390625 126.1876449584961 256.5103149414063 120.2308120727539 256.5103149414063 Z" stroke="none" fill="#333"/>
    </g>
    <g id="tree-2" data-name="tree" transform="translate(1650.996 7115.507)" fill="#242424">
      <path d="M 120.2308120727539 255.5103149414063 L 72.15541839599609 255.5103149414063 C 69.70691680908203 255.5103149414063 67.47621154785156 254.2661743164063 66.18827819824219 252.1822509765625 C 64.90821075439453 250.111083984375 64.78660583496094 247.5775604248047 65.86013031005859 245.3958282470703 L 81.00897979736328 221.1897125244141 L 81.16131591796875 220.9463500976563 L 81.16131591796875 220.6592102050781 L 81.16131591796875 208.4098815917969 L 81.16131591796875 207.4098815917969 L 80.16131591796875 207.4098815917969 L 11.59524822235107 207.4098815917969 C 7.466681957244873 207.4098815917969 3.690848588943481 205.0310211181641 1.975815176963806 201.3494415283203 C 0.2412152290344238 197.6200408935547 0.8643152117729187 193.378173828125 3.602248668670654 190.2797546386719 L 43.62694931030273 144.9444427490234 L 45.09414672851563 143.2826080322266 L 42.87731552124023 143.2826080322266 L 27.5318489074707 143.2826080322266 C 23.40491485595703 143.2826080322266 19.76231575012207 140.9970092773438 18.02551460266113 137.3177795410156 C 16.29688262939453 133.6461486816406 16.86891555786133 129.4437408447266 19.5187816619873 126.3514175415039 L 58.6655158996582 80.80718231201172 L 60.0853157043457 79.15534973144531 L 57.90715026855469 79.15534973144531 L 43.43341445922852 79.15534973144531 C 39.26671600341797 79.15534973144531 35.52304840087891 76.71607971191406 33.89598083496094 72.94101715087891 C 32.29191589355469 69.22554779052734 33.0513801574707 64.91458129882813 35.83054733276367 61.95774841308594 L 91.08061218261719 3.100480794906616 C 92.33541870117188 1.760514140129089 94.19924926757813 0.9925141334533691 96.19501495361328 0.9925141334533691 C 98.19044494628906 0.9925141334533691 100.0526809692383 1.760280728340149 101.3042144775391 3.099014043807983 L 156.5502166748047 61.95724868774414 C 159.3329772949219 64.91791534423828 160.0925750732422 69.228515625 158.4859161376953 72.93951416015625 C 156.8581848144531 76.71607971191406 153.1165161132813 79.15534973144531 148.9528503417969 79.15534973144531 L 134.4791107177734 79.15534973144531 L 132.3008117675781 79.15534973144531 L 133.7207794189453 80.80721282958984 L 172.8634796142578 126.3425827026367 C 175.5217132568359 129.4385528564453 176.0956420898438 133.6420440673828 174.3609466552734 137.3123168945313 C 172.6245880126953 140.9952545166016 168.9820556640625 143.2826080322266 164.8544158935547 143.2826080322266 L 149.5089416503906 143.2826080322266 L 147.2921142578125 143.2826080322266 L 148.7593078613281 144.9444427490234 L 188.7837524414063 190.2794189453125 C 191.5219421386719 193.3781433105469 192.1450500488281 197.6200103759766 190.4101867675781 201.3499755859375 C 188.6954193115234 205.0310211181641 184.9195861816406 207.4098815917969 180.791015625 207.4098815917969 L 112.2249450683594 207.4098815917969 L 111.2249450683594 207.4098815917969 L 111.2249450683594 208.4098815917969 L 111.2249450683594 220.6592102050781 L 111.2249450683594 220.9463500976563 L 111.3772811889648 221.1897125244141 L 126.5261001586914 245.3958282470703 C 127.5996246337891 247.5775604248047 127.4780197143555 250.111083984375 126.1979522705078 252.1822509765625 C 124.9100189208984 254.2661743164063 122.679313659668 255.5103149414063 120.2308120727539 255.5103149414063 Z" stroke="none"/>
      <path d="M 120.2308120727539 254.5103149414063 C 122.3302154541016 254.5103149414063 124.2429122924805 253.4434814453125 125.3473129272461 251.6565093994141 C 126.4363403320313 249.8944091796875 126.5476226806641 247.7422027587891 125.6503219604492 245.8814544677734 L 110.5295791625977 221.72021484375 L 110.2249450683594 221.2334442138672 L 110.2249450683594 220.6592102050781 L 110.2249450683594 208.4098815917969 L 110.2249450683594 206.4098815917969 L 112.2249450683594 206.4098815917969 L 180.791015625 206.4098815917969 C 184.5324096679688 206.4098815917969 187.9524536132813 204.2577819824219 189.5034790039063 200.9282531738281 C 191.0680847167969 197.5643463134766 190.5052490234375 193.7378082275391 188.0340881347656 190.9412536621094 L 148.0096435546875 145.6062774658203 L 145.0753173828125 142.2826080322266 L 149.5089416503906 142.2826080322266 L 164.8544158935547 142.2826080322266 C 168.5909118652344 142.2826080322266 171.8868560791016 140.2150421142578 173.4568481445313 136.8849792480469 C 175.0205535888672 133.5765533447266 174.5023193359375 129.786376953125 172.1051483154297 126.9944458007813 L 132.9624481201172 81.45908355712891 L 130.1225128173828 78.15534973144531 L 134.4791107177734 78.15534973144531 L 148.9528503417969 78.15534973144531 C 152.7168121337891 78.15534973144531 156.0980529785156 75.9532470703125 157.5682220458984 72.54218292236328 C 159.0162506103516 69.19761657714844 158.3308410644531 65.31181335449219 155.8210754394531 62.64164733886719 L 100.5737457275391 3.781947374343872 C 99.51058197021484 2.644747495651245 97.91461181640625 1.992514133453369 96.19501495361328 1.992514133453369 C 94.47481536865234 1.992514133453369 92.87701416015625 2.645180702209473 91.80971527099609 3.784914016723633 L 36.5592155456543 62.64264678955078 C 34.05321502685547 65.30881500244141 33.36811447143555 69.19538116455078 34.81431579589844 72.54521179199219 C 36.28318023681641 75.9532470703125 39.6663818359375 78.15534973144531 43.43341445922852 78.15534973144531 L 57.90715026855469 78.15534973144531 L 62.26348114013672 78.15534973144531 L 59.42388153076172 81.45901489257813 L 20.27811431884766 127.0021133422852 C 17.88791465759277 129.7913818359375 17.37161445617676 133.5812530517578 18.92984771728516 136.8908843994141 C 20.49974822998047 140.2166137695313 23.79584884643555 142.2826080322266 27.5318489074707 142.2826080322266 L 42.87731552124023 142.2826080322266 L 47.31094741821289 142.2826080322266 L 44.37661361694336 145.6062774658203 L 4.351582050323486 190.9419097900391 C 1.880981922149658 193.7378082275391 1.318181872367859 197.5643768310547 2.882282018661499 200.9271850585938 C 4.433815002441406 204.2577819824219 7.853848457336426 206.4098815917969 11.59524822235107 206.4098815917969 L 80.16131591796875 206.4098815917969 L 82.16131591796875 206.4098815917969 L 82.16131591796875 208.4098815917969 L 82.16131591796875 220.6592102050781 L 82.16131591796875 221.2334442138672 L 81.85668182373047 221.72021484375 L 66.73590850830078 245.8814544677734 C 65.83860778808594 247.7422027587891 65.94989013671875 249.8944091796875 67.03891754150391 251.6565093994141 C 68.14331817626953 253.4434814453125 70.05601501464844 254.5103149414063 72.15541839599609 254.5103149414063 L 120.2308120727539 254.5103149414063 M 120.2308120727539 256.5103149414063 L 72.15541839599609 256.5103149414063 C 66.19858551025391 256.5103149414063 62.32088088989258 250.2379150390625 64.98618316650391 244.9073181152344 L 80.16131591796875 220.6592102050781 L 80.16131591796875 208.4098815917969 L 11.59524822235107 208.4098815917969 C 7.081282138824463 208.4098815917969 2.948081970214844 205.8047180175781 1.069348573684692 201.7717132568359 C -0.83445143699646 197.6785736083984 -0.1530847698450089 193.0193481445313 2.852881908416748 189.6175842285156 L 42.87731552124023 144.2826080322266 L 27.5318489074707 144.2826080322266 C 23.01288223266602 144.2826080322266 19.02498245239258 141.7776489257813 17.1212158203125 137.7446441650391 C 15.22241497039795 133.7116088867188 15.84868144989014 129.0974731445313 18.75944900512695 125.7007141113281 L 57.90715026855469 80.15534973144531 L 43.43341445922852 80.15534973144531 C 38.87434768676758 80.15534973144531 34.76121520996094 77.47501373291016 32.9776496887207 73.33681488037109 C 31.21918106079102 69.26371765136719 32.04581451416016 64.52431488037109 35.10188293457031 61.27288055419922 L 90.35151672363281 2.416080713272095 C 91.86453247070313 0.8003641366958618 94.03008270263672 -0.007494226098060608 96.19499969482422 -0.007494226098060608 C 98.35992431640625 -0.007494226098060608 100.5242156982422 0.8003641366958618 102.0347137451172 2.416080713272095 L 157.2793426513672 61.27288055419922 C 160.3354187011719 64.52431488037109 161.1670532226563 69.26371765136719 159.4035797119141 73.33681488037109 C 157.6200103759766 77.47501373291016 153.5118865966797 80.15534973144531 148.9528503417969 80.15534973144531 L 134.4791107177734 80.15534973144531 L 173.6218109130859 125.6907119750977 C 176.5425872802734 129.0924530029297 177.1688537597656 133.7116088867188 175.2650451660156 137.7396087646484 C 173.3612823486328 141.7776489257813 169.3683776855469 144.2826080322266 164.8544158935547 144.2826080322266 L 149.5089416503906 144.2826080322266 L 189.5333862304688 189.6175842285156 C 192.5393524169922 193.0193481445313 193.2206878662109 197.6785736083984 191.3169097900391 201.7717132568359 C 189.4381866455078 205.8047180175781 185.3049774169922 208.4098815917969 180.791015625 208.4098815917969 L 112.2249450683594 208.4098815917969 L 112.2249450683594 220.6592102050781 L 127.4000473022461 244.9073181152344 C 130.0653533935547 250.2379150390625 126.1876449584961 256.5103149414063 120.2308120727539 256.5103149414063 Z" stroke="none" fill="#333"/>
    </g>
    <g id="tree-3" data-name="tree" transform="translate(1693.996 6966.166)" fill="#242424">
      <path d="M 190.2253265380859 404.852294921875 L 114.1609268188477 404.852294921875 C 112.0596313476563 404.852294921875 110.0946807861328 404.33154296875 108.3206787109375 403.3045349121094 C 106.6625823974609 402.3446044921875 105.2461776733398 400.9635009765625 104.2245788574219 399.310546875 C 103.202880859375 397.6574096679688 102.6009826660156 395.7725524902344 102.4839782714844 393.8598327636719 C 102.3597106933594 391.8283996582031 102.7659301757813 389.8515014648438 103.6914367675781 387.9833374023438 L 127.6754837036133 349.6594848632813 L 127.8277816772461 349.4161071777344 L 127.8277816772461 349.1289978027344 L 127.8277816772461 329.748291015625 L 127.8277816772461 328.748291015625 L 126.8277816772461 328.748291015625 L 18.34328079223633 328.748291015625 C 11.58573055267334 328.748291015625 5.404480457305908 324.8524475097656 2.595780611038208 318.8231811523438 C -0.2479695081710815 312.7091369628906 0.7730305194854736 305.7558898925781 5.260580539703369 300.6774597167969 L 68.58708190917969 228.9486389160156 L 70.05422973632813 227.2867889404297 L 67.83743286132813 227.2867889404297 L 43.55802917480469 227.2867889404297 C 36.80083084106445 227.2867889404297 30.83578109741211 223.5426940917969 27.99068069458008 217.5155944824219 C 25.15643119812012 211.4956512451172 26.09393119812012 204.6064453125 30.43778038024902 199.5374450683594 L 92.37583160400391 127.4771423339844 L 93.79563140869141 125.8252944946289 L 91.61747741699219 125.8252944946289 L 68.71727752685547 125.8252944946289 C 61.89208221435547 125.8252944946289 55.75902938842773 121.8278427124023 53.09268188476563 115.6412963867188 C 50.46282958984375 109.5498962402344 51.70767974853516 102.482048034668 56.26388168334961 97.63449096679688 L 143.6797332763672 4.511444568634033 C 145.7742309570313 2.274794578552246 148.8780364990234 0.9925446510314941 152.1961364746094 0.9925446510314941 C 155.5139312744141 0.9925446510314941 158.6153259277344 2.274594783782959 160.7051239013672 4.509944915771484 L 248.1139831542969 97.63404846191406 C 252.6758270263672 102.4874954223633 253.9208374023438 109.5549926757813 251.2863311767578 115.6397933959961 C 248.6193237304688 121.8278427124023 242.4894256591797 125.8252944946289 235.6690368652344 125.8252944946289 L 212.7688293457031 125.8252944946289 L 210.5905303955078 125.8252944946289 L 212.0104827880859 127.4771423339844 L 273.9416198730469 199.5226898193359 C 278.2994689941406 204.59814453125 279.239990234375 211.4895935058594 276.3958435058594 217.5072479248047 C 273.5517272949219 223.539794921875 267.5867309570313 227.2867889404297 260.8283386230469 227.2867889404297 L 236.5488739013672 227.2867889404297 L 234.3320770263672 227.2867889404297 L 235.7992248535156 228.9486389160156 L 299.1254272460938 300.6771545410156 C 303.61328125 305.7558898925781 304.63427734375 312.7091064453125 301.790283203125 318.8236999511719 C 298.9818420410156 324.8524475097656 292.8005676269531 328.748291015625 286.0430297851563 328.748291015625 L 177.5585327148438 328.748291015625 L 176.5585327148438 328.748291015625 L 176.5585327148438 329.748291015625 L 176.5585327148438 349.1289978027344 L 176.5585327148438 349.4161071777344 L 176.7108306884766 349.6594848632813 L 200.6948699951172 387.9833374023438 C 201.6203765869141 389.8515014648438 202.0265960693359 391.8283996582031 201.9023284912109 393.8598022460938 C 201.7853240966797 395.7725524902344 201.1834259033203 397.6573486328125 200.1617279052734 399.310546875 C 199.14013671875 400.9635009765625 197.7237243652344 402.3446044921875 196.0656280517578 403.3045043945313 C 194.2915802001953 404.33154296875 192.3266296386719 404.852294921875 190.2253265380859 404.852294921875 Z" stroke="none"/>
      <path d="M 190.225341796875 403.852294921875 C 192.1484527587891 403.852294921875 193.9448089599609 403.3768310546875 195.5646057128906 402.4390869140625 C 197.0803985595703 401.5615539550781 198.3759155273438 400.2979125976563 199.3110198974609 398.7848205566406 C 200.246337890625 397.2715148925781 200.7971801757813 395.5473327636719 200.9041900634766 393.7987670898438 C 201.0166778564453 391.9596862792969 200.6520385742188 390.1677856445313 199.8203277587891 388.470947265625 L 175.8631286621094 350.1899719238281 L 175.5585021972656 349.7031860351563 L 175.5585021972656 349.1289672851563 L 175.5585021972656 329.748291015625 L 175.5585021972656 327.748291015625 L 177.5585021972656 327.748291015625 L 286.0430297851563 327.748291015625 C 292.4134521484375 327.748291015625 298.2388610839844 324.0792541503906 300.883544921875 318.4019775390625 C 303.5572814941406 312.6534118652344 302.5966186523438 306.1155090332031 298.3757629394531 301.3389892578125 L 235.0495452880859 229.6104583740234 L 232.115234375 226.2867736816406 L 236.5488739013672 226.2867736816406 L 260.8282775878906 226.2867736816406 C 267.1956176757813 226.2867736816406 272.81396484375 222.7595520019531 275.49169921875 217.0799255371094 C 278.1648559570313 211.4240264892578 277.2800903320313 204.9459838867188 273.1832885742188 200.1746063232422 L 211.2521362304688 128.1290283203125 L 208.4122314453125 124.8252944946289 L 212.7688140869141 124.8252944946289 L 235.6690216064453 124.8252944946289 C 242.0897674560547 124.8252944946289 247.8591766357422 121.0649795532227 250.36865234375 115.2424545288086 C 252.8444976806641 109.5241394042969 251.6736602783203 102.8814544677734 247.3848724365234 98.31839752197266 L 159.9747161865234 5.192873477935791 C 158.0731811523438 3.158978939056396 155.2380218505859 1.992505192756653 152.1961364746094 1.992505192756653 C 149.1536102294922 1.992505192756653 146.3158111572266 3.159452676773071 144.4088745117188 5.195873737335205 L 56.99254989624023 98.31939697265625 C 52.70949935913086 102.8762969970703 51.53902435302734 109.5197143554688 54.01102447509766 115.2455062866211 C 56.51918411254883 121.0649795532227 62.29176330566406 124.8252944946289 68.71728515625 124.8252944946289 L 91.61750030517578 124.8252944946289 L 95.97381591796875 124.8252944946289 L 93.13423919677734 128.1289825439453 L 31.19707870483398 200.1880798339844 C 27.11297225952148 204.9540863037109 26.23123550415039 211.4307708740234 28.8950252532959 217.0887145996094 C 31.5732364654541 222.7622985839844 37.1917610168457 226.2867736816406 43.55802536010742 226.2867736816406 L 67.83744812011719 226.2867736816406 L 72.27108001708984 226.2867736816406 L 69.33676147460938 229.6104583740234 L 6.009920120239258 301.339599609375 C 1.789709448814392 306.1155090332031 0.8290252089500427 312.6534423828125 3.502235651016235 318.4009399414063 C 6.147446155548096 324.0792541503906 11.97292041778564 327.748291015625 18.34328842163086 327.748291015625 L 126.8277587890625 327.748291015625 L 128.8277587890625 327.748291015625 L 128.8277587890625 329.748291015625 L 128.8277587890625 349.1289672851563 L 128.8277587890625 349.7031860351563 L 128.5231323242188 350.1899719238281 L 104.5659255981445 388.470947265625 C 103.7342300415039 390.1677856445313 103.3695831298828 391.9596862792969 103.4820785522461 393.7987670898438 C 103.5890808105469 395.5473327636719 104.1399230957031 397.2715148925781 105.0752334594727 398.7848205566406 C 106.0103378295898 400.2979125976563 107.3058700561523 401.5615539550781 108.8216552734375 402.4390869140625 C 110.4414443969727 403.3768310546875 112.2378158569336 403.852294921875 114.1609191894531 403.852294921875 L 190.225341796875 403.852294921875 M 190.225341796875 405.852294921875 L 114.1609191894531 405.852294921875 C 104.7361297607422 405.852294921875 98.60086822509766 395.9281311035156 102.81787109375 387.494140625 L 126.8277587890625 349.1289672851563 L 126.8277587890625 329.748291015625 L 18.34328842163086 329.748291015625 C 11.201340675354 329.748291015625 4.66181468963623 325.6264038085938 1.689288377761841 319.2454528808594 C -1.322816848754883 312.7693481445313 -0.2447642385959625 305.3974914550781 4.511183261871338 300.0152893066406 L 67.83744812011719 228.2867736816406 L 43.55802536010742 228.2867736816406 C 36.40818405151367 228.2867736816406 30.09855079650879 224.3234558105469 27.08639335632324 217.9425048828125 C 24.08218383789063 211.5614471435547 25.07302474975586 204.2610321044922 29.67839431762695 198.88671875 L 91.61750030517578 126.8252944946289 L 68.71728515625 126.8252944946289 C 61.50402450561523 126.8252944946289 54.99623489379883 122.5845031738281 52.17433929443359 116.0370864868164 C 49.3920783996582 109.5927124023438 50.69997406005859 102.0940856933594 55.53523635864258 96.94966125488281 L 142.9506530761719 3.82703161239624 C 145.3444976806641 1.270689368247986 148.7707977294922 -0.007481637876480818 152.1961212158203 -0.007481637876480818 C 155.6214294433594 -0.007481637876480818 159.0457611083984 1.270689368247986 161.4356536865234 3.82703161239624 L 248.8431243896484 96.94966125488281 C 253.6783905029297 102.0940856933594 254.9942321777344 109.5927124023438 252.2040252685547 116.0370864868164 C 249.3821258544922 122.5845031738281 242.8822937011719 126.8252944946289 235.6690216064453 126.8252944946289 L 212.7688140869141 126.8252944946289 L 274.6999816894531 198.8708801269531 C 279.3212280273438 204.2530822753906 280.3120727539063 211.5614471435547 277.2999267578125 217.9345550537109 C 274.2878112792969 224.3234558105469 267.9702453613281 228.2867736816406 260.8282775878906 228.2867736816406 L 236.5488739013672 228.2867736816406 L 299.8750915527344 300.0152893066406 C 304.6311340332031 305.3974914550781 305.7091369628906 312.7693481445313 302.6969604492188 319.2454528808594 C 299.7244873046875 325.6264038085938 293.1850280761719 329.748291015625 286.0430297851563 329.748291015625 L 177.5585021972656 329.748291015625 L 177.5585021972656 349.1289672851563 L 201.5683898925781 387.494140625 C 205.785400390625 395.9281311035156 199.6501312255859 405.852294921875 190.225341796875 405.852294921875 Z" stroke="none" fill="#333"/>
    </g>
    <g id="tree-4" data-name="tree" transform="translate(1533.996 7115.507)" fill="#242424">
      <path d="M 120.2308120727539 255.5103149414063 L 72.15541839599609 255.5103149414063 C 69.70691680908203 255.5103149414063 67.47621154785156 254.2661743164063 66.18827819824219 252.1822509765625 C 64.90821075439453 250.111083984375 64.78660583496094 247.5775604248047 65.86013031005859 245.3958282470703 L 81.00897979736328 221.1897125244141 L 81.16131591796875 220.9463500976563 L 81.16131591796875 220.6592102050781 L 81.16131591796875 208.4098815917969 L 81.16131591796875 207.4098815917969 L 80.16131591796875 207.4098815917969 L 11.59524822235107 207.4098815917969 C 7.466681957244873 207.4098815917969 3.690848588943481 205.0310211181641 1.975815176963806 201.3494415283203 C 0.2412152290344238 197.6200408935547 0.8643152117729187 193.378173828125 3.602248668670654 190.2797546386719 L 43.62694931030273 144.9444427490234 L 45.09414672851563 143.2826080322266 L 42.87731552124023 143.2826080322266 L 27.5318489074707 143.2826080322266 C 23.40491485595703 143.2826080322266 19.76231575012207 140.9970092773438 18.02551460266113 137.3177795410156 C 16.29688262939453 133.6461486816406 16.86891555786133 129.4437408447266 19.5187816619873 126.3514175415039 L 58.6655158996582 80.80718231201172 L 60.0853157043457 79.15534973144531 L 57.90715026855469 79.15534973144531 L 43.43341445922852 79.15534973144531 C 39.26671600341797 79.15534973144531 35.52304840087891 76.71607971191406 33.89598083496094 72.94101715087891 C 32.29191589355469 69.22554779052734 33.0513801574707 64.91458129882813 35.83054733276367 61.95774841308594 L 91.08061218261719 3.100480794906616 C 92.33541870117188 1.760514140129089 94.19924926757813 0.9925141334533691 96.19501495361328 0.9925141334533691 C 98.19044494628906 0.9925141334533691 100.0526809692383 1.760280728340149 101.3042144775391 3.099014043807983 L 156.5502166748047 61.95724868774414 C 159.3329772949219 64.91791534423828 160.0925750732422 69.228515625 158.4859161376953 72.93951416015625 C 156.8581848144531 76.71607971191406 153.1165161132813 79.15534973144531 148.9528503417969 79.15534973144531 L 134.4791107177734 79.15534973144531 L 132.3008117675781 79.15534973144531 L 133.7207794189453 80.80721282958984 L 172.8634796142578 126.3425827026367 C 175.5217132568359 129.4385528564453 176.0956420898438 133.6420440673828 174.3609466552734 137.3123168945313 C 172.6245880126953 140.9952545166016 168.9820556640625 143.2826080322266 164.8544158935547 143.2826080322266 L 149.5089416503906 143.2826080322266 L 147.2921142578125 143.2826080322266 L 148.7593078613281 144.9444427490234 L 188.7837524414063 190.2794189453125 C 191.5219421386719 193.3781433105469 192.1450500488281 197.6200103759766 190.4101867675781 201.3499755859375 C 188.6954193115234 205.0310211181641 184.9195861816406 207.4098815917969 180.791015625 207.4098815917969 L 112.2249450683594 207.4098815917969 L 111.2249450683594 207.4098815917969 L 111.2249450683594 208.4098815917969 L 111.2249450683594 220.6592102050781 L 111.2249450683594 220.9463500976563 L 111.3772811889648 221.1897125244141 L 126.5261001586914 245.3958282470703 C 127.5996246337891 247.5775604248047 127.4780197143555 250.111083984375 126.1979522705078 252.1822509765625 C 124.9100189208984 254.2661743164063 122.679313659668 255.5103149414063 120.2308120727539 255.5103149414063 Z" stroke="none"/>
      <path d="M 120.2308120727539 254.5103149414063 C 122.3302154541016 254.5103149414063 124.2429122924805 253.4434814453125 125.3473129272461 251.6565093994141 C 126.4363403320313 249.8944091796875 126.5476226806641 247.7422027587891 125.6503219604492 245.8814544677734 L 110.5295791625977 221.72021484375 L 110.2249450683594 221.2334442138672 L 110.2249450683594 220.6592102050781 L 110.2249450683594 208.4098815917969 L 110.2249450683594 206.4098815917969 L 112.2249450683594 206.4098815917969 L 180.791015625 206.4098815917969 C 184.5324096679688 206.4098815917969 187.9524536132813 204.2577819824219 189.5034790039063 200.9282531738281 C 191.0680847167969 197.5643463134766 190.5052490234375 193.7378082275391 188.0340881347656 190.9412536621094 L 148.0096435546875 145.6062774658203 L 145.0753173828125 142.2826080322266 L 149.5089416503906 142.2826080322266 L 164.8544158935547 142.2826080322266 C 168.5909118652344 142.2826080322266 171.8868560791016 140.2150421142578 173.4568481445313 136.8849792480469 C 175.0205535888672 133.5765533447266 174.5023193359375 129.786376953125 172.1051483154297 126.9944458007813 L 132.9624481201172 81.45908355712891 L 130.1225128173828 78.15534973144531 L 134.4791107177734 78.15534973144531 L 148.9528503417969 78.15534973144531 C 152.7168121337891 78.15534973144531 156.0980529785156 75.9532470703125 157.5682220458984 72.54218292236328 C 159.0162506103516 69.19761657714844 158.3308410644531 65.31181335449219 155.8210754394531 62.64164733886719 L 100.5737457275391 3.781947374343872 C 99.51058197021484 2.644747495651245 97.91461181640625 1.992514133453369 96.19501495361328 1.992514133453369 C 94.47481536865234 1.992514133453369 92.87701416015625 2.645180702209473 91.80971527099609 3.784914016723633 L 36.5592155456543 62.64264678955078 C 34.05321502685547 65.30881500244141 33.36811447143555 69.19538116455078 34.81431579589844 72.54521179199219 C 36.28318023681641 75.9532470703125 39.6663818359375 78.15534973144531 43.43341445922852 78.15534973144531 L 57.90715026855469 78.15534973144531 L 62.26348114013672 78.15534973144531 L 59.42388153076172 81.45901489257813 L 20.27811431884766 127.0021133422852 C 17.88791465759277 129.7913818359375 17.37161445617676 133.5812530517578 18.92984771728516 136.8908843994141 C 20.49974822998047 140.2166137695313 23.79584884643555 142.2826080322266 27.5318489074707 142.2826080322266 L 42.87731552124023 142.2826080322266 L 47.31094741821289 142.2826080322266 L 44.37661361694336 145.6062774658203 L 4.351582050323486 190.9419097900391 C 1.880981922149658 193.7378082275391 1.318181872367859 197.5643768310547 2.882282018661499 200.9271850585938 C 4.433815002441406 204.2577819824219 7.853848457336426 206.4098815917969 11.59524822235107 206.4098815917969 L 80.16131591796875 206.4098815917969 L 82.16131591796875 206.4098815917969 L 82.16131591796875 208.4098815917969 L 82.16131591796875 220.6592102050781 L 82.16131591796875 221.2334442138672 L 81.85668182373047 221.72021484375 L 66.73590850830078 245.8814544677734 C 65.83860778808594 247.7422027587891 65.94989013671875 249.8944091796875 67.03891754150391 251.6565093994141 C 68.14331817626953 253.4434814453125 70.05601501464844 254.5103149414063 72.15541839599609 254.5103149414063 L 120.2308120727539 254.5103149414063 M 120.2308120727539 256.5103149414063 L 72.15541839599609 256.5103149414063 C 66.19858551025391 256.5103149414063 62.32088088989258 250.2379150390625 64.98618316650391 244.9073181152344 L 80.16131591796875 220.6592102050781 L 80.16131591796875 208.4098815917969 L 11.59524822235107 208.4098815917969 C 7.081282138824463 208.4098815917969 2.948081970214844 205.8047180175781 1.069348573684692 201.7717132568359 C -0.83445143699646 197.6785736083984 -0.1530847698450089 193.0193481445313 2.852881908416748 189.6175842285156 L 42.87731552124023 144.2826080322266 L 27.5318489074707 144.2826080322266 C 23.01288223266602 144.2826080322266 19.02498245239258 141.7776489257813 17.1212158203125 137.7446441650391 C 15.22241497039795 133.7116088867188 15.84868144989014 129.0974731445313 18.75944900512695 125.7007141113281 L 57.90715026855469 80.15534973144531 L 43.43341445922852 80.15534973144531 C 38.87434768676758 80.15534973144531 34.76121520996094 77.47501373291016 32.9776496887207 73.33681488037109 C 31.21918106079102 69.26371765136719 32.04581451416016 64.52431488037109 35.10188293457031 61.27288055419922 L 90.35151672363281 2.416080713272095 C 91.86453247070313 0.8003641366958618 94.03008270263672 -0.007494226098060608 96.19499969482422 -0.007494226098060608 C 98.35992431640625 -0.007494226098060608 100.5242156982422 0.8003641366958618 102.0347137451172 2.416080713272095 L 157.2793426513672 61.27288055419922 C 160.3354187011719 64.52431488037109 161.1670532226563 69.26371765136719 159.4035797119141 73.33681488037109 C 157.6200103759766 77.47501373291016 153.5118865966797 80.15534973144531 148.9528503417969 80.15534973144531 L 134.4791107177734 80.15534973144531 L 173.6218109130859 125.6907119750977 C 176.5425872802734 129.0924530029297 177.1688537597656 133.7116088867188 175.2650451660156 137.7396087646484 C 173.3612823486328 141.7776489257813 169.3683776855469 144.2826080322266 164.8544158935547 144.2826080322266 L 149.5089416503906 144.2826080322266 L 189.5333862304688 189.6175842285156 C 192.5393524169922 193.0193481445313 193.2206878662109 197.6785736083984 191.3169097900391 201.7717132568359 C 189.4381866455078 205.8047180175781 185.3049774169922 208.4098815917969 180.791015625 208.4098815917969 L 112.2249450683594 208.4098815917969 L 112.2249450683594 220.6592102050781 L 127.4000473022461 244.9073181152344 C 130.0653533935547 250.2379150390625 126.1876449584961 256.5103149414063 120.2308120727539 256.5103149414063 Z" stroke="none" fill="#333"/>
    </g>
    <path id="dove" d="M21.05,12.274V10.218a19.81,19.81,0,0,1-3.957-9.157A1.165,1.165,0,0,0,15.059.454a19.722,19.722,0,0,0-3.577,6.327,17.576,17.576,0,0,0,9.567,5.493Zm8.192-7.548a5.856,5.856,0,0,0-5.851,5.859v4.345A19.864,19.864,0,0,1,6.348,3.1a1.168,1.168,0,0,0-2.121-.066,19.742,19.742,0,0,0-1.9,8.463A19.14,19.14,0,0,0,8.55,25.1a29.88,29.88,0,0,0,2.845,2.4L.87,30.127a1.177,1.177,0,0,0-.695,1.785c1.273,1.968,4.418,5.3,11.205,5.581A2.352,2.352,0,0,0,13,36.915l4.769-4.1H23.39a11.693,11.693,0,0,0,11.7-11.7V9.406l2.341-4.681Zm0,7.029a1.17,1.17,0,1,1,1.17-1.17A1.174,1.174,0,0,1,29.241,11.754Z" transform="translate(1475.016 7109.479)" fill="#242424"/>
    <path id="dove-2" data-name="dove" d="M21.05,12.274V10.218a19.81,19.81,0,0,1-3.957-9.157A1.165,1.165,0,0,0,15.059.454a19.722,19.722,0,0,0-3.577,6.327,17.576,17.576,0,0,0,9.567,5.493Zm8.192-7.548a5.856,5.856,0,0,0-5.851,5.859v4.345A19.864,19.864,0,0,1,6.348,3.1a1.168,1.168,0,0,0-2.121-.066,19.742,19.742,0,0,0-1.9,8.463A19.14,19.14,0,0,0,8.55,25.1a29.88,29.88,0,0,0,2.845,2.4L.87,30.127a1.177,1.177,0,0,0-.695,1.785c1.273,1.968,4.418,5.3,11.205,5.581A2.352,2.352,0,0,0,13,36.915l4.769-4.1H23.39a11.693,11.693,0,0,0,11.7-11.7V9.406l2.341-4.681Zm0,7.029a1.17,1.17,0,1,1,1.17-1.17A1.174,1.174,0,0,1,29.241,11.754Z" transform="translate(1423.016 7146.479)" fill="#242424"/>
    <path id="dove-3" data-name="dove" d="M21.05,12.274V10.218a19.81,19.81,0,0,1-3.957-9.157A1.165,1.165,0,0,0,15.059.454a19.722,19.722,0,0,0-3.577,6.327,17.576,17.576,0,0,0,9.567,5.493Zm8.192-7.548a5.856,5.856,0,0,0-5.851,5.859v4.345A19.864,19.864,0,0,1,6.348,3.1a1.168,1.168,0,0,0-2.121-.066,19.742,19.742,0,0,0-1.9,8.463A19.14,19.14,0,0,0,8.55,25.1a29.88,29.88,0,0,0,2.845,2.4L.87,30.127a1.177,1.177,0,0,0-.695,1.785c1.273,1.968,4.418,5.3,11.205,5.581A2.352,2.352,0,0,0,13,36.915l4.769-4.1H23.39a11.693,11.693,0,0,0,11.7-11.7V9.406l2.341-4.681Zm0,7.029a1.17,1.17,0,1,1,1.17-1.17A1.174,1.174,0,0,1,29.241,11.754Z" transform="translate(1416.016 7090.479)" fill="#242424"/>
  </g>
</svg>
